\relax 
\citation{lamparter2007preference}
\citation{Heiskala2005}
\citation{van2010configurable}
\citation{Akkermans2004}
\citation{Galan14FGCS}
\citation{lamparter2007preference}
\citation{Heiskala2005}
\citation{Kang90}
\citation{wittern2012cloud}
\citation{Galan14FGCS}
\citation{Galan14FGCS}
\@LN@col{1}
\providecommand\@newglossary[4]{}
\@newglossary{main}{glg}{gls}{glo}
\@newglossary{acronym}{alg}{acr}{acn}
\select@language{english}
\@writefile{toc}{\select@language{english}}
\@writefile{lof}{\select@language{english}}
\@writefile{lot}{\select@language{english}}
\@writefile{toc}{\contentsline {section}{\numberline {1}Introduction and Motivation}{1}}
\newlabel{sec:intro}{{1}{1}}
\@LN@col{2}
\citation{Galan14FGCS}
\@LN@col{1}
\@writefile{toc}{\contentsline {section}{\numberline {2}Modelling Highly-Configurable Services}{2}}
\newlabel{sec:hcs}{{2}{2}}
\newlabel{code:StorageSynopsis}{{1}{2}}
\@writefile{lol}{\contentsline {lstlisting}{\numberline {1}Simple Block Storage Service in SYNOPSIS.}{2}}
\@LN@col{2}
\@writefile{toc}{\contentsline {subsection}{\numberline {2.1}Configurable Services}{2}}
\@writefile{toc}{\contentsline {subsection}{\numberline {2.2}Decision Terms}{2}}
\@writefile{lof}{\contentsline {figure}{\numberline {1}{\ignorespaces Highly-Configurable Services Metamodel.}}{3}}
\newlabel{fig:HCSAbstractModel}{{1}{3}}
\@LN@col{1}
\@writefile{toc}{\contentsline {subsection}{\numberline {2.3}Dependencies}{3}}
\newlabel{sec:HCSSynopsisDependencies}{{2.3}{3}}
\@writefile{toc}{\contentsline {subsection}{\numberline {2.4}Highly-Configurable Services}{3}}
\@LN@col{2}
\newlabel{code:StorageHCSSynopsis}{{2}{3}}
\@writefile{lol}{\contentsline {lstlisting}{\numberline {2}Volume Storage HCS in SYNOPSIS.}{3}}
\@writefile{lot}{\contentsline {table}{\numberline {1}{\ignorespaces Dependency Expression Types for SYNOPSIS}}{4}}
\newlabel{tab:SYNOPSISExpressions}{{1}{4}}
\@LN@col{1}
\@writefile{toc}{\contentsline {section}{\numberline {3}Validity Criteria}{4}}
\newlabel{sec:validity}{{3}{4}}
\@writefile{toc}{\contentsline {subsection}{\numberline {3.1}Warning Level}{4}}
\@writefile{toc}{\contentsline {subsection}{\numberline {3.2}Term Error Level}{4}}
\@LN@col{2}
\newlabel{code:DeadAndFalseSynopsis}{{3}{4}}
\@writefile{lol}{\contentsline {lstlisting}{\numberline {3}Example of Dead Value and False Decision Term}{4}}
\@writefile{toc}{\contentsline {subsection}{\numberline {3.3}Service Error Level}{4}}
\newlabel{code:FalseConfigServiceSynopsis}{{4}{4}}
\@writefile{lol}{\contentsline {lstlisting}{\numberline {4}Example of False Configurable Service.}{4}}
\citation{garcia2013integrating}
\citation{Hofstede98}
\citation{trinidad2013automated}
\citation{trinidad14-CFM}
\@LN@col{1}
\@writefile{toc}{\contentsline {section}{\numberline {4}Describing User Needs for Selection}{5}}
\newlabel{sec:ranking}{{4}{5}}
\newlabel{code:simpleConfiguration}{{5}{5}}
\@writefile{lol}{\contentsline {lstlisting}{\numberline {5}User needs on the Simple Block Storage Service.}{5}}
\@LN@col{2}
\@writefile{toc}{\contentsline {section}{\numberline {5}Automated Analysis}{5}}
\newlabel{sec:analysis}{{5}{5}}
\citation{Galan14FGCS}
\citation{Galan14FGCS}
\@writefile{lot}{\contentsline {table}{\numberline {2}{\ignorespaces Mapping CSs into SFMs}}{6}}
\newlabel{tab:CSmapping}{{2}{6}}
\@LN@col{1}
\@writefile{toc}{\contentsline {section}{\numberline {6}Prototype Implementation}{6}}
\newlabel{sec:validation}{{6}{6}}
\@LN@col{2}
\@writefile{toc}{\contentsline {section}{\numberline {7}Conclusions}{6}}
\newlabel{sec:conclusions}{{7}{6}}
\citation{garcia2013integrating}
\bibstyle{ieeetran}
\bibdata{bibliography}
\@writefile{lot}{\contentsline {table}{\numberline {3}{\ignorespaces Mapping items, requirements and preferences into SFMs}}{7}}
\newlabel{tab:NeedMapping}{{3}{7}}
\@writefile{lot}{\contentsline {table}{\numberline {4}{\ignorespaces Mapping HCSs into SFMs}}{7}}
\newlabel{tab:HCSmapping}{{4}{7}}
\@LN@col{1}
\@writefile{lot}{\contentsline {table}{\numberline {5}{\ignorespaces Analysis operation correspondence between \Glspl {hcs}\xspace  and \Glspl {sfm}\xspace  }}{7}}
\newlabel{tab:operationCorrespondence}{{5}{7}}
\@LN@col{2}
\@writefile{lof}{\contentsline {figure}{\numberline {2}{\ignorespaces Volume Storage HCS translated into a SFM.}}{8}}
\newlabel{fig:StorageSFM}{{2}{8}}
\@writefile{lof}{\contentsline {figure}{\numberline {3}{\ignorespaces Prototype Implementation}}{8}}
\newlabel{fig:ideas}{{3}{8}}
\@LN@col{1}
\@LN@col{2}
